For: GreenGrass.jpg
Original name: grass_green_d.jpg

------  Original textures by Nobiax/yughues
From archives: "Free tiling textures pack" 1..55
License: CC-0 (Public Domain)

http://nobiax.deviantart.com
http://opengameart.org/users/yughues


------  Edited by CryHam
License is also  CC-0
------

=============================================================